This is BibTeX, Version 0.99d (TeX Live 2013/TeX Live for SUSE Linux)
Capacity: max_strings=35307, hash_size=35307, hash_prime=30011
The top-level auxiliary file: note.aux
The style file: unsrt.bst
Database file #1: short.bib
Database file #2: refs.bib
You've used 4 entries,
            1791 wiz_defined-function locations,
            742 strings with 7753 characters,
and the built_in function-call counts, 641 in all, are:
= -- 53
> -- 34
< -- 0
+ -- 13
- -- 9
* -- 33
:= -- 126
add.period$ -- 12
call.type$ -- 4
change.case$ -- 2
chr.to.int$ -- 0
cite$ -- 4
duplicate$ -- 31
empty$ -- 58
format.name$ -- 9
if$ -- 134
int.to.chr$ -- 0
int.to.str$ -- 4
missing$ -- 2
newline$ -- 23
num.names$ -- 5
pop$ -- 7
preamble$ -- 1
purify$ -- 0
quote$ -- 0
skip$ -- 9
stack$ -- 0
substring$ -- 9
swap$ -- 3
text.length$ -- 0
text.prefix$ -- 0
top$ -- 0
type$ -- 0
warning$ -- 0
while$ -- 5
width$ -- 5
write$ -- 46
