\relax 
\citation{Szunyogh10}
\@writefile{toc}{\contentsline {section}{\numberline {1}Paramagnetic state}{1}}
\newlabel{step2}{{2}{2}}
\@writefile{toc}{\contentsline {section}{\numberline {2}Evolution from the ferromagnetic to the paramagnetic state}{2}}
\@writefile{toc}{\contentsline {subsection}{\numberline {2.1}Construction of the distribution function}{3}}
\citation{Abramowitz70}
\newlabel{step2a}{{3}{4}}
\@writefile{toc}{\contentsline {section}{\numberline {3}Effective Heisenberg exchange constants}{5}}
\citation{Buruzs08}
\@writefile{toc}{\contentsline {section}{\numberline {4}Weiss fields}{6}}
\@writefile{toc}{\contentsline {section}{\numberline {5}Computational strategy}{6}}
\@writefile{toc}{\contentsline {section}{\numberline {A}Von Mises distribution (from Wikipedia)}{7}}
\@writefile{lof}{\contentsline {figure}{\numberline {1}{\ignorespaces Von Mises distribution.}}{8}}
\newlabel{fig:vMd}{{1}{8}}
\@writefile{toc}{\contentsline {section}{\numberline {B}Von Mises-Fisher distribution (from Wikipedia)}{8}}
\@writefile{lof}{\contentsline {figure}{\numberline {2}{\ignorespaces Von Mises-Fisher distribution. Points sampled from three von Mises-Fisher distributions on the sphere (blue: $\kappa = 1$, green: $\kappa = 10$, red: $\kappa = 100$). The mean directions $\mathaccentV {vec}17E{\mu }$ are shown with arrows.}}{9}}
\newlabel{fig:vMFd}{{2}{9}}
\@writefile{toc}{\contentsline {paragraph}{Normalization of the vMF distribution.}{9}}
\citation{Atkinson82}
\bibdata{short,refs}
\bibcite{Szunyogh10}{1}
\@writefile{toc}{\contentsline {paragraph}{Paramagnetic limit.}{10}}
\@writefile{toc}{\contentsline {section}{\numberline {C}Integration on the unit sphere}{10}}
\bibcite{Abramowitz70}{2}
\bibcite{Buruzs08}{3}
\bibcite{Atkinson82}{4}
\bibstyle{unsrt}
\global\@altsecnumformattrue
